{
    "fluentMethods": true,
    "relationships": [],
    "fields": [
        {
            "fieldName": "uuid",
            "fieldType": "String",
            "fieldValidateRules": [
                "required"
            ]
        },
        {
            "fieldName": "titleEng",
            "fieldType": "String"
        },
        {
            "fieldName": "indexOrder",
            "fieldType": "Integer",
            "fieldValidateRules": [
                "required"
            ]
        },
        {
            "fieldName": "forSell",
            "fieldType": "Boolean"
        },
        {
            "fieldName": "cameNew",
            "fieldType": "Boolean"
        },
        {
            "fieldName": "commingSoon",
            "fieldType": "Boolean"
        },
        {
            "fieldName": "titleFa",
            "fieldType": "String"
        },
        {
            "fieldName": "titleDe",
            "fieldType": "String"
        }
    ],
    "changelogDate": "20180214152441",
    "dto": "no",
    "service": "no",
    "entityTableName": "category",
    "jpaMetamodelFiltering": false,
    "pagination": "pagination",
    "microserviceName": "roo",
    "searchEngine": false
}
