{
    "fluentMethods": true,
    "relationships": [],
    "fields": [
        {
            "fieldName": "indexOrder",
            "fieldType": "Integer",
            "fieldValidateRules": [
                "required"
            ]
        },
        {
            "fieldName": "language",
            "fieldType": "Language",
            "fieldValues": "FA_IR,EN_GB,DE_DE",
            "fieldValidateRules": [
                "required"
            ]
        },
        {
            "fieldName": "text",
            "fieldType": "String",
            "fieldValidateRules": [
                "required"
            ]
        },
        {
            "fieldName": "vote",
            "fieldType": "Integer"
        },
        {
            "fieldName": "commWordUuid",
            "fieldType": "String"
        },
        {
            "fieldName": "picture",
            "fieldType": "Boolean"
        },
        {
            "fieldName": "base",
            "fieldType": "Boolean"
        },
        {
            "fieldName": "wordType",
            "fieldType": "WordType",
            "fieldValues": "Word,Verb,Phrase"
        },
        {
            "fieldName": "lessonId",
            "fieldType": "Long",
            "fieldValidateRules": [
                "required"
            ]
        },
        {
            "fieldName": "wordId",
            "fieldType": "Long",
            "fieldValidateRules": [
                "required"
            ]
        },
        {
            "fieldName": "wordUuid",
            "fieldType": "String",
            "fieldValidateRules": [
                "required"
            ]
        },
        {
            "fieldName": "lessonUuid",
            "fieldType": "String",
            "fieldValidateRules": [
                "required"
            ]
        }
    ],
    "changelogDate": "20180815124925",
    "dto": "no",
    "service": "no",
    "entityTableName": "lesson_comm_word",
    "jpaMetamodelFiltering": false,
    "pagination": "pagination",
    "microserviceName": "roo",
    "searchEngine": false
}
