{
    "fluentMethods": true,
    "relationships": [],
    "fields": [
        {
            "fieldName": "owner",
            "fieldType": "String",
            "fieldValidateRules": [
                "required"
            ]
        },
        {
            "fieldName": "learnDir",
            "fieldType": "LearnDir",
            "fieldValues": "FA_IR_EN_GB,EN_GB_DE_DE",
            "fieldValidateRules": [
                "required"
            ]
        },
        {
            "fieldName": "target",
            "fieldType": "Language",
            "fieldValues": "FA_IR,EN_GB,DE_DE"
        },
        {
            "fieldName": "score",
            "fieldType": "Integer",
            "fieldValidateRules": [
                "required"
            ]
        },
        {
            "fieldName": "star",
            "fieldType": "Integer",
            "fieldValidateRules": [
                "required"
            ]
        },
        {
            "fieldName": "scoreDate",
            "fieldType": "LocalDate",
            "fieldValidateRules": [
                "required"
            ]
        },
        {
            "fieldName": "type",
            "fieldType": "ScoreType",
            "fieldValues": "LESSON,DAILY",
            "fieldValidateRules": [
                "required"
            ]
        },
        {
            "fieldName": "difficultyLevel",
            "fieldType": "Level",
            "fieldValues": "Beginner,Intermediate,Advanced"
        },
        {
            "fieldName": "lessonUuid",
            "fieldType": "String"
        },
        {
            "fieldName": "categoryUuid",
            "fieldType": "String"
        }
    ],
    "changelogDate": "20180228132223",
    "dto": "no",
    "service": "serviceClass",
    "entityTableName": "score",
    "jpaMetamodelFiltering": true,
    "pagination": "infinite-scroll",
    "microserviceName": "roo",
    "searchEngine": false
}
