{
    "fluentMethods": true,
    "relationships": [],
    "fields": [
        {
            "fieldName": "paymentToken",
            "fieldType": "String",
            "fieldValidateRules": [
                "required"
            ]
        },
        {
            "fieldName": "amount",
            "fieldType": "Integer",
            "fieldValidateRules": [
                "required"
            ]
        },
        {
            "fieldName": "currency",
            "fieldType": "RooCurrency",
            "fieldValues": "IRR,USD,TOMAN",
            "fieldValidateRules": [
                "required"
            ]
        },
        {
            "fieldName": "description",
            "fieldType": "String",
            "fieldValidateRules": [
                "required"
            ]
        },
        {
            "fieldName": "email",
            "fieldType": "String"
        },
        {
            "fieldName": "mobile",
            "fieldType": "String"
        },
        {
            "fieldName": "zarinStatus",
            "fieldType": "ZarinStatus",
            "fieldValues": "OK,NOK"
        },
        {
            "fieldName": "refId",
            "fieldType": "Long"
        },
        {
            "fieldName": "creationTime",
            "fieldType": "ZonedDateTime",
            "fieldValidateRules": [
                "required"
            ]
        },
        {
            "fieldName": "owner",
            "fieldType": "String",
            "fieldValidateRules": [
                "required"
            ]
        },
        {
            "fieldName": "subscriptionType",
            "fieldType": "SubscriptionType",
            "fieldValues": "ONE_MONTH,ONE_YEAR",
            "fieldValidateRules": [
                "required"
            ]
        }
    ],
    "changelogDate": "20180327152230",
    "dto": "no",
    "service": "serviceClass",
    "entityTableName": "zarinpal_event",
    "jpaMetamodelFiltering": true,
    "pagination": "pagination",
    "microserviceName": "roo",
    "searchEngine": false
}
